…
Below is a table summarizing the number of items ordered from aisle. In
total, there are 134 aisles, with fresh vegetables and fresh fruits
holding the most items ordered by far.

``` r
instacart %>% 
  count(aisle) %>% 
  arrange(desc(n))
```

    ## # A tibble: 134 × 2
    ##    aisle                              n
    ##    <chr>                          <int>
    ##  1 fresh vegetables              150609
    ##  2 fresh fruits                  150473
    ##  3 packaged vegetables fruits     78493
    ##  4 yogurt                         55240
    ##  5 packaged cheese                41699
    ##  6 water seltzer sparkling water  36617
    ##  7 milk                           32644
    ##  8 chips pretzels                 31269
    ##  9 soy lactosefree                26240
    ## 10 bread                          23635
    ## # … with 124 more rows
…
``` r
total_activity =
  accel_tidy %>%
  group_by(week, day) %>%
  summarise(total_activity_counts=sum(activity_count))
```

    ## `summarise()` has grouped output by 'week'. You can override using the
    ## `.groups` argument.

``` r
total_activity
```

    ## # A tibble: 35 × 3
    ## # Groups:   week [5]
    ##     week day       total_activity_counts
    ##    <dbl> <chr>                     <dbl>
    ##  1     1 Friday                  480543.
    ##  2     1 Monday                   78828.
    ##  3     1 Saturday                376254 
    ##  4     1 Sunday                  631105 
    ##  5     1 Thursday                355924.
    ##  6     1 Tuesday                 307094.
    ##  7     1 Wednesday               340115.
    ##  8     2 Friday                  568839 
    ##  9     2 Monday                  295431 
    ## 10     2 Saturday                607175 
    ## # … with 25 more rows
…
